# Object Export From Tinkercad Server 2015

mtllib obj.mtl

o obj_0
v -51 		43 		47
v -51 		43 		9
v -51 		-41 		9
v -51 		-41 		47
v -28 		-18 		47
v 62.5626 		-16 		71.032
v -28 		14 		47
v -12.5626 		-16 		71.032
v -28 		-18 		71.032
v 78 		-18 		71.032
v 98 		43 		9
v 98 		43 		47
v 78 		-18 		47
v 78 		14 		47
v 61.585 		12 		71.678
v 59.012 		12 		73.051
v -28 		14 		71.032
v 98 		-41 		47
v 59.012 		-16 		73.051
v 61.585 		-16 		71.678
v 25 		12 		79.419
v 56.113 		-16 		74.317
v 52.913 		-16 		75.465
v 56.113 		12 		74.317
v 49.445 		-16 		76.484
v 45.741 		-16 		77.362
v 41.838 		-16 		78.093
v 37.773 		-16 		78.669
v 98 		-41 		9
v -9.012 		12 		73.051
v 33.584 		-16 		79.085
v -9.012 		-16 		73.051
v -6.113 		-16 		74.317
v -6.113 		12 		74.317
v -12.5626 		12 		71.032
v 62.5626 		12 		71.032
v 20.687 		12 		79.335
v 20.687 		-16 		79.335
v 25 		-16 		79.419
v 52.913 		12 		75.465
v 16.416 		12 		79.085
v -11.585 		12 		71.678
v 16.416 		-16 		79.085
v -11.585 		-16 		71.678
v 49.445 		12 		76.484
v 12.227 		12 		78.669
v 12.227 		-16 		78.669
v 29.313 		-16 		79.335
v 8.162 		12 		78.093
v 8.162 		-16 		78.093
v 45.741 		12 		77.362
v 33.584 		12 		79.085
v 37.773 		12 		78.669
v 4.259 		12 		77.362
v 41.838 		12 		78.093
v 78 		14 		71.032
v 4.259 		-16 		77.362
v 0.555 		-16 		76.484
v 0.555 		12 		76.484
v -2.913 		-16 		75.465
v 29.313 		12 		79.335
v -2.913 		12 		75.465
# 62 vertices

g group_0_15277357

usemtl color_15277357
s 0

f 1 	2 	3
f 1 	3 	4
f 8 	9 	6
f 10 	6 	9
f 5 	7 	4
f 1 	4 	7
f 13 	5 	18
f 4 	18 	5
f 9 	5 	13
f 9 	13 	10
f 15 	16 	19
f 15 	19 	20
f 16 	24 	22
f 16 	22 	19
f 30 	32 	33
f 30 	33 	34
f 11 	18 	29
f 6 	20 	19
f 6 	19 	22
f 6 	22 	23
f 25 	6 	23
f 26 	6 	25
f 27 	6 	26
f 28 	6 	27
f 31 	6 	28
f 21 	37 	38
f 21 	38 	39
f 17 	9 	8
f 24 	40 	23
f 24 	23 	22
f 17 	8 	35
f 56 	17 	36
f 29 	3 	11
f 37 	41 	43
f 37 	43 	38
f 42 	44 	32
f 42 	32 	30
f 2 	1 	11
f 17 	7 	5
f 17 	5 	9
f 29 	18 	3
f 4 	3 	18
f 40 	45 	25
f 40 	25 	23
f 41 	46 	47
f 41 	47 	43
f 14 	12 	7
f 1 	7 	12
f 12 	11 	1
f 35 	8 	44
f 35 	44 	42
f 46 	49 	50
f 46 	50 	47
f 11 	3 	2
f 14 	10 	13
f 17 	14 	7
f 45 	51 	26
f 45 	26 	25
f 10 	14 	56
f 49 	54 	57
f 49 	57 	50
f 35 	36 	17
f 6 	31 	48
f 6 	48 	39
f 6 	39 	38
f 6 	38 	43
f 6 	43 	47
f 50 	57 	6
f 57 	58 	6
f 58 	60 	6
f 47 	50 	6
f 56 	14 	17
f 51 	55 	27
f 51 	27 	26
f 40 	35 	45
f 51 	45 	35
f 55 	51 	35
f 53 	55 	35
f 52 	53 	35
f 24 	35 	40
f 16 	35 	24
f 15 	35 	16
f 36 	35 	15
f 61 	52 	35
f 54 	59 	58
f 54 	58 	57
f 55 	53 	28
f 55 	28 	27
f 60 	33 	6
f 33 	32 	6
f 32 	44 	6
f 8 	6 	44
f 53 	52 	31
f 53 	31 	28
f 46 	35 	49
f 41 	35 	46
f 37 	35 	41
f 21 	35 	37
f 61 	35 	21
f 54 	49 	35
f 59 	54 	35
f 11 	12 	18
f 52 	61 	31
f 30 	35 	42
f 34 	35 	30
f 62 	35 	34
f 59 	35 	62
f 13 	18 	14
f 12 	14 	18
f 36 	6 	56
f 61 	48 	31
f 58 	59 	60
f 62 	60 	59
f 61 	21 	39
f 61 	39 	48
f 34 	33 	60
f 34 	60 	62
f 10 	56 	6
f 6 	36 	15
f 6 	15 	20
# 120 faces

 #end of obj_0

