# Object Export From Tinkercad Server 2015

mtllib obj.mtl

o obj_0
v 220.044 		451.456 		84.7001
v 218.6462 		451.456 		84.289
v 219.537 		447.091 		-40.635
v 219.537 		447.091 		-45
v 65.131 		428.526 		217.138
v 77.696 		430.189 		217.138
v 347.605 		447.092 		126.78
v 175.883 		451.456 		71.7114
v 348.651 		447.092 		123.009
v 119.132 		416.533 		-31.904
v 212.7147 		451.456 		82.5444
v 245.623 		482.014 		323.504
v 243.504 		482.014 		323.787
v 219.537 		451.02 		-45
v 313.1688 		451.456 		117.23
v 191.162 		482.014 		177.637
v 313.1688 		447.528 		117.23
v 191.162 		464.553 		177.637
v 9.996 		416.533 		-31.904
v 119.708 		457.847 		85.963
v 245.732 		499 		11.748
v 313.5974 		447.528 		113.2878
v 313.5974 		451.456 		113.2878
v 350.5 		451.457 		-45
v 350.5 		451.457 		-40.635
v 9.996 		416.533 		33.578
v 219.537 		451.02 		-40.635
v 350.5 		451.457 		-35.817
v 350.5 		451.457 		-31.904
v 350.5 		451.456 		-31.904
v 119.132 		416.533 		33.578
v 82.905 		416.533 		33.578
v 42.582 		416.533 		33.578
v 313.05 		447.528 		118.322
v 219.537 		447.091 		-31.904
v 219.537 		447.091 		-35.817
v 219.537 		451.02 		-35.817
v 219.537 		451.02 		-31.904
v 107.174 		452.932 		217.138
v 120.442 		451.456 		55.405
v 247.701 		482.014 		323.036
v 99.459 		442.823 		217.138
v 89.405 		435.066 		217.138
v 313.05 		451.456 		118.322
v 52.566 		430.189 		217.138
v 40.858 		435.066 		217.138
v 30.803 		442.823 		217.138
v 23.088 		452.932 		217.138
v 219.535 		464.553 		304.237
v 219.5353 		464.553 		304.237
v 219.64 		464.553 		306.158
v 249.718 		482.014 		322.386
v 219.954 		464.553 		308.066
v 220.475 		464.553 		309.936
v 251.655 		482.014 		321.562
v 65.131 		477.338 		293.691
v 203.1442 		495.111 		79.7295
v 199.222 		495.111 		78.5759
v 221.196 		464.553 		311.752
v 253.492 		482.014 		320.57
v 119.132 		457.1723 		11.751
v 222.112 		464.553 		313.495
v 111.56 		499 		216.926
v 223.214 		464.553 		315.149
v 255.213 		482.014 		319.422
v 119.132 		457.1723 		33.578
v 224.49 		464.553 		316.698
v 256.8 		482.014 		318.127
v 225.928 		464.553 		318.127
v 258.239 		482.014 		316.698
v 112.024 		489.972 		217.138
v 227.516 		464.553 		319.422
v 259.515 		482.014 		315.149
v 229.236 		464.553 		320.57
v -3.1 		403 		-45
v -3.1 		403 		-40.635
v 260.616 		482.014 		313.495
v 261.532 		482.014 		311.752
v 231.074 		464.553 		321.562
v -3.1 		403 		-35.817
v -3.1 		403 		-31.904
v 233.01 		464.553 		322.386
v 1.265 		416.096 		-31.904
v 235.027 		464.553 		323.036
v 262.254 		482.014 		309.936
v 9.996 		403 		-31.904
v 237.105 		464.553 		323.504
v 245.732 		451.456 		33.58
v 262.774 		482.014 		308.066
v 9.996 		416.096 		-31.904
v 239.225 		464.553 		323.787
v 1.265 		416.096 		-40.635
v 241.364 		464.553 		323.882
v 263.089 		482.014 		306.158
v 313.607 		447.528 		113.2
v 313.607 		451.456 		113.2
v 243.504 		464.553 		323.787
v 306.846 		451.456 		116.5473
v 263.194 		482.014 		304.237
v 263.1937 		482.014 		304.237
v 245.623 		464.553 		323.504
v 200.5892 		451.456 		78.978
v 306.846 		451.456 		111.266
v 1.265 		416.096 		-45
v 107.174 		499 		217.138
v 247.701 		464.553 		323.036
v 23.088 		499 		217.138
v 249.718 		464.553 		322.386
v 16.584 		492.031 		216.926
v 251.655 		464.553 		321.562
v 253.492 		464.553 		320.57
v 85.548 		431.153 		216.926
v 255.213 		464.553 		319.422
v 256.8 		464.553 		318.127
v 241.364 		482.014 		323.882
v 112.024 		464.705 		217.138
v 291.567 		482.014 		343.524
v 258.239 		464.553 		316.698
v 1.265 		416.096 		-35.817
v 259.515 		464.553 		315.149
v 260.616 		464.553 		313.495
v 261.532 		464.553 		311.752
v 219.535 		482.014 		304.237
v 191.162 		482.014 		343.524
v 262.254 		464.553 		309.936
v 219.535 		482.014 		208.193
v 263.194 		482.014 		208.193
v 262.774 		464.553 		308.066
v 306.846 		451.456 		115.4765
v 112.617 		461.585 		216.926
v 263.089 		464.553 		306.158
v 306.846 		451.456 		111.4155
v 291.567 		482.014 		177.637
v 263.1937 		464.553 		304.237
v 263.194 		464.553 		304.237
v 9.996 		450.81 		33.578
v 305.1871 		451.456 		109.7425
v 306.846 		451.456 		110.2304
v 306.846 		451.456 		164.541
v 112.617 		461.585 		140.736
v 85.548 		431.153 		140.736
v 291.567 		464.553 		343.524
v 46.207 		427.465 		140.736
v 17.642 		452.681 		140.736
v 186.796 		482.014 		343.524
v 241.364 		482.014 		387.178
v 295.932 		482.014 		343.524
v 295.932 		464.553 		343.524
v 18.238 		489.972 		217.138
v 241.364 		464.553 		387.178
v 191.162 		464.553 		343.524
v 263.194 		464.553 		208.193
v 113.678 		477.338 		217.138
v 219.535 		464.553 		208.193
v 219.64 		482.014 		306.158
v 219.5353 		482.014 		304.237
v 291.567 		464.553 		177.637
v 219.954 		482.014 		308.066
v 220.475 		482.014 		309.936
v 221.196 		482.014 		311.752
v 222.112 		482.014 		313.495
v 223.214 		482.014 		315.149
v 186.796 		464.553 		343.524
v 224.49 		482.014 		316.698
v 350.5 		451.456 		123.07
v 225.928 		482.014 		318.127
v 298.115 		486.38 		177.637
v 227.516 		482.014 		319.422
v 128.288 		403.873 		-40.634
v 245.732 		451.456 		11.748
v 229.236 		482.014 		320.57
v 128.288 		403.873 		-45
v 350.5 		499 		55.405
v 350.5 		499 		123.07
v 128.288 		412.168 		-40.634
v 119.356 		499 		11.751
v 119.132 		499 		11.751
v 119.132 		499 		33.578
v 26.832 		436.82 		140.531
v 306.846 		495.111 		110.2304
v 65.662 		420.037 		140.531
v 306.846 		495.111 		164.541
v 128.288 		412.168 		-45
v 104.492 		436.82 		140.531
v 219.535 		499 		11.748
v 298.115 		486.38 		164.541
v 128.288 		403.873 		-31.904
v 128.288 		403.873 		-35.817
v 65.662 		420.037 		85.963
v 100.1578 		434.9467 		85.963
v 104.492 		436.82 		85.963
v 219.535 		499 		33.58
v 128.288 		412.168 		-35.817
v 128.288 		412.168 		-31.904
v 125.336 		451.02 		62.65
v 126.447 		451.02 		58.897
v 126.447 		447.091 		58.897
v 125.336 		447.091 		62.65
v 121.315 		499 		-31.904
v 106.8689 		442.8078 		85.963
v 121.315 		499 		55.405
v 198.3271 		451.456 		78.3127
v 348.651 		451.457 		123.009
v 347.605 		451.457 		126.78
v 119.356 		499 		85.963
v 306.846 		451.457 		115.4765
v 120.442 		499 		55.405
v 306.846 		451.457 		111.4155
v 87.991 		420.695 		85.963
v 350.5 		499 		-31.904
v 127.863 		451.02 		-31.904
v 127.863 		447.091 		-31.904
v 127.863 		412.168 		-31.904
v 127.863 		451.456 		-31.904
v 123.498 		451.456 		-31.904
v 123.498 		412.168 		-31.904
v 298.115 		460.187 		177.637
v 298.115 		460.187 		164.541
v 119.132 		412.168 		-31.904
v 119.132 		403.873 		-31.904
v 184.614 		486.38 		177.637
v 184.614 		486.38 		164.541
v 102.7698 		438.0063 		49.3521
v 127.863 		407.802 		-36.269
v 127.863 		407.802 		-35.817
v 123.498 		407.802 		-35.817
v 123.498 		407.802 		-36.269
v 26.832 		436.82 		85.963
v 127.863 		412.168 		-40.634
v 127.863 		451.456 		-40.634
v 123.498 		451.456 		-40.634
v 123.498 		412.168 		-40.634
v 17.642 		452.681 		216.926
v 10.569 		448.699 		85.963
v 127.863 		447.091 		-45
v 127.863 		451.02 		-45
v 127.863 		451.456 		-45
v 127.863 		412.168 		-45
v 123.498 		412.168 		-45
v 123.498 		451.456 		-45
v 42.784 		416.906 		85.963
v 175.883 		495.111 		164.541
v 175.883 		495.111 		71.7114
v 127.863 		451.02 		-40.635
v 127.863 		447.091 		-40.635
v 245.732 		499 		33.58
v 10.4545 		464.553 		33.578
v 10.458 		464.074 		33.578
v 46.207 		427.465 		216.926
v 42.784 		416.906 		33.578
v 82.905 		420.2687 		33.578
v 85.9459 		420.5236 		36.5095
v 119.132 		499 		-31.904
v 1.265 		499 		-40.635
v 1.265 		499 		-45
v -3.1 		499 		-45
v -3.1 		499 		-40.635
v 33.7714 		425.8005 		43.0207
v 42.582 		417.1053 		33.578
v 1.265 		499 		-31.904
v 1.265 		499 		-35.817
v -3.1 		499 		-35.817
v -3.1 		499 		-31.904
v 231.074 		482.014 		321.562
v 233.01 		482.014 		322.386
v 10.5538 		450.81 		33.578
v 10.558 		450.2188 		34.1804
v 235.027 		482.014 		323.036
v 127.863 		451.456 		-36.269
v 237.105 		482.014 		323.504
v 123.498 		451.456 		-36.269
v 239.225 		482.014 		323.787
v 127.863 		451.02 		-35.817
v 127.863 		447.091 		-35.817
v 127.863 		412.168 		-35.817
v 10.569 		448.699 		34.1921
v 123.498 		412.168 		-35.817
v 26.0506 		433.4202 		50.7845
v 220.044 		447.092 		-45
v 220.044 		447.092 		-40.635
v 220.044 		447.092 		-35.817
v 220.044 		447.092 		-31.904
v 220.044 		451.456 		-31.904
v 16.584 		477.338 		217.138
v 87.991 		420.695 		36.6354
v 18.238 		464.705 		217.138
v 92.939 		412.168 		-45
v 92.939 		403.873 		-45
v 92.939 		403.873 		-40.635
v 92.939 		412.168 		-40.635
v 92.939 		412.168 		-35.817
v 92.939 		403.873 		-35.817
v 92.939 		403.873 		-31.904
v 120.576 		477.338 		140.531
v 219.535 		451.456 		11.748
v 92.939 		412.168 		-31.904
v 350.5 		451.456 		55.405
v 120.576 		477.338 		85.963
v 92.939 		403 		-40.635
v 92.939 		403 		-45
v 119.5631 		474.7864 		85.963
v 175.883 		451.456 		164.541
v 119.5292 		478.7478 		85.963
v 92.939 		416.096 		-45
v 219.535 		451.456 		33.58
v 92.939 		416.096 		-40.635
v 92.939 		403 		-31.904
v 92.939 		403 		-35.817
v 92.939 		416.096 		-35.817
v 92.939 		416.096 		-31.904
v 36.614 		412.168 		-40.634
v 36.614 		412.168 		-40.635
v 36.614 		403.873 		-40.635
v 36.614 		403.873 		-40.634
v 121.315 		451.456 		55.405
v 121.315 		451.456 		-31.904
v 184.614 		460.187 		164.541
v 184.614 		460.187 		177.637
v 350.5 		447.092 		-40.635
v 350.5 		447.092 		-45
v 350.5 		447.092 		-31.904
v 350.5 		447.092 		-35.817
v 119.708 		457.847 		11.751
v 218.389 		447.528 		85.963
v 217.833 		447.528 		91.085
v 217.833 		451.456 		91.085
v 218.389 		451.456 		85.963
v 217.013 		447.091 		89.806
v 218.124 		447.091 		86.053
v 218.124 		451.02 		86.053
v 217.013 		451.02 		89.806
v 220.044 		451.457 		-40.635
v 220.044 		451.457 		-45
v 220.044 		451.457 		-31.904
v 220.044 		451.457 		-35.817
v 10.748 		477.338 		140.531
v 10.748 		477.338 		85.963
v 222.939 		447.092 		88.146
v 221.893 		447.092 		91.917
v 221.893 		447.528 		91.917
v 222.939 		447.528 		88.146
v 9.996 		499 		33.578
v 9.996 		499 		-31.904
v 9.996 		496.97 		33.578
v 16.584 		492.031 		140.736
v 43.654 		499 		140.736
v 111.56 		499 		140.736
v 43.654 		499 		216.926
v 104.492 		499 		140.531
v 26.832 		499 		140.531
v 104.492 		499 		85.963
v 41.935 		499 		85.963
v 26.832 		499 		85.963
v 26.2634 		498.2342 		85.963
v 10.217 		497.45 		85.963
v 42.051 		499 		33.578
v 41.935 		499 		33.7044
v 30.4537 		498.4389 		46.2137
v 26.024 		499 		51.04
v 16.028 		497.734 		40.1497
v 10.217 		497.45 		33.8188
v 10.2203 		496.9984 		33.8223
v 10.2205 		496.97 		33.578
# 363 vertices

g group_0_2829873

usemtl color_2829873
s 0

f 51 	49 	50
f 53 	151 	51
f 18 	49 	151
f 12 	117 	41
f 54 	151 	53
f 59 	151 	54
f 62 	151 	59
f 55 	117 	60
f 64 	151 	62
f 65 	117 	68
f 69 	151 	67
f 74 	151 	72
f 69 	72 	151
f 82 	151 	79
f 84 	151 	82
f 74 	79 	151
f 78 	117 	85
f 87 	151 	84
f 151 	87 	91
f 142 	151 	93
f 85 	117 	89
f 101 	142 	97
f 93 	97 	142
f 99 	100 	94
f 89 	117 	94
f 94 	117 	99
f 106 	142 	101
f 108 	142 	106
f 78 	77 	117
f 77 	73 	117
f 73 	70 	117
f 70 	68 	117
f 65 	60 	117
f 117 	55 	52
f 52 	41 	117
f 13 	115 	117
f 272 	124 	115
f 12 	13 	117
f 111 	142 	110
f 133 	99 	117
f 113 	142 	111
f 127 	99 	133
f 114 	142 	113
f 120 	142 	118
f 126 	16 	123
f 122 	142 	121
f 120 	121 	142
f 128 	142 	125
f 131 	142 	128
f 122 	125 	142
f 134 	135 	131
f 135 	142 	131
f 124 	123 	16
f 110 	142 	108
f 114 	118 	142
f 91 	93 	151
f 127 	133 	126
f 16 	126 	133
f 142 	135 	157
f 142 	157 	117
f 51 	151 	49
f 67 	151 	64
f 154 	49 	18
f 133 	117 	157
f 124 	18 	151
f 155 	51 	50
f 155 	50 	156
f 135 	152 	157
f 50 	49 	123
f 50 	123 	156
f 158 	53 	51
f 158 	51 	155
f 18 	157 	154
f 159 	54 	53
f 159 	53 	158
f 160 	59 	54
f 160 	54 	159
f 161 	62 	59
f 161 	59 	160
f 152 	154 	157
f 162 	64 	62
f 162 	62 	161
f 164 	67 	64
f 164 	64 	162
f 166 	69 	67
f 166 	67 	164
f 168 	72 	69
f 168 	69 	166
f 171 	74 	72
f 171 	72 	168
f 74 	171 	79
f 84 	270 	87
f 87 	270 	91
f 97 	12 	101
f 41 	106 	12
f 101 	12 	106
f 108 	106 	41
f 65 	113 	111
f 114 	113 	65
f 264 	79 	171
f 79 	264 	82
f 265 	82 	264
f 268 	84 	82
f 268 	82 	265
f 84 	268 	270
f 272 	91 	270
f 91 	272 	93
f 115 	93 	272
f 93 	115 	97
f 13 	97 	115
f 97 	13 	12
f 52 	108 	41
f 108 	52 	110
f 55 	110 	52
f 60 	111 	110
f 60 	110 	55
f 111 	60 	65
f 68 	114 	65
f 114 	68 	118
f 70 	118 	68
f 73 	120 	118
f 73 	118 	70
f 120 	73 	121
f 77 	121 	73
f 78 	122 	121
f 78 	121 	77
f 85 	125 	78
f 122 	78 	125
f 125 	85 	89
f 125 	89 	128
f 128 	89 	94
f 128 	94 	131
f 131 	94 	100
f 131 	100 	134
f 99 	135 	134
f 99 	134 	100
f 127 	135 	99
f 123 	49 	126
f 154 	126 	49
f 16 	18 	124
f 152 	127 	126
f 152 	126 	154
f 135 	127 	152
f 123 	155 	156
f 123 	124 	155
f 158 	155 	124
f 158 	124 	159
f 160 	159 	124
f 160 	124 	161
f 161 	124 	162
f 166 	164 	124
f 164 	162 	124
f 168 	166 	124
f 270 	268 	124
f 124 	171 	168
f 171 	124 	264
f 265 	264 	124
f 268 	265 	124
f 270 	124 	272
f 124 	117 	115
# 160 faces

g group_0_3888547

usemtl color_3888547
s 0

f 11 	102 	297
f 2 	297 	1
f 102 	202 	297
f 144 	346 	143
f 141 	143 	346
f 147 	117 	146
f 117 	124 	146
f 145 	146 	124
f 148 	147 	146
f 148 	146 	150
f 130 	348 	112
f 141 	140 	112
f 130 	112 	140
f 150 	163 	151
f 150 	151 	142
f 150 	142 	148
f 177 	178 	176
f 181 	184 	179
f 181 	189 	190
f 191 	184 	190
f 181 	190 	184
f 191 	200 	184
f 137 	297 	138
f 176 	178 	205
f 228 	189 	179
f 181 	179 	189
f 202 	8 	297
f 2 	11 	297
f 200 	191 	190
f 209 	190 	189
f 173 	201 	174
f 20 	200 	223
f 66 	20 	223
f 200 	190 	223
f 209 	223 	190
f 57 	180 	174
f 241 	228 	234
f 233 	249 	348
f 189 	228 	241
f 189 	241 	209
f 241 	252 	209
f 112 	348 	249
f 176 	205 	303
f 234 	247 	248
f 143 	249 	144
f 207 	40 	243
f 243 	58 	207
f 250 	251 	241
f 251 	252 	241
f 285 	209 	252
f 233 	144 	249
f 241 	258 	259
f 241 	259 	250
f 143 	112 	249
f 58 	57 	207
f 174 	207 	57
f 234 	248 	267
f 266 	267 	248
f 143 	141 	112
f 276 	234 	267
f 207 	174 	201
f 258 	241 	278
f 278 	241 	234
f 276 	278 	234
f 209 	285 	223
f 176 	323 	177
f 165 	174 	180
f 180 	138 	165
f 165 	297 	174
f 298 	294 	301
f 298 	303 	294
f 298 	301 	303
f 301 	323 	303
f 20 	323 	301
f 137 	1 	297
f 165 	138 	297
f 8 	243 	40
f 297 	173 	174
f 40 	315 	8
f 315 	297 	8
f 345 	346 	144
f 61 	177 	323
f 323 	20 	66
f 323 	66 	61
f 176 	303 	323
f 345 	144 	233
f 179 	184 	336
f 336 	184 	294
f 184 	200 	294
f 301 	294 	200
f 336 	354 	337
f 179 	336 	228
f 337 	228 	336
f 355 	337 	354
f 355 	234 	337
f 228 	337 	234
f 40 	207 	315
f 201 	315 	207
f 200 	20 	301
f 148 	142 	117
f 148 	117 	147
f 124 	151 	163
f 124 	163 	145
f 146 	145 	163
f 146 	163 	150
f 347 	140 	346
f 140 	141 	346
f 109 	233 	348
f 63 	348 	130
f 140 	347 	130
f 63 	130 	347
f 348 	63 	346
f 347 	346 	63
f 346 	345 	109
f 346 	109 	348
f 345 	233 	109
f 349 	350 	336
f 349 	336 	294
f 294 	303 	349
f 351 	349 	303
f 353 	350 	352
f 350 	349 	352
f 351 	352 	349
f 336 	350 	354
f 353 	354 	350
f 354 	353 	352
f 205 	351 	303
f 356 	351 	178
f 357 	351 	356
f 352 	351 	357
f 205 	178 	351
f 358 	355 	354
f 354 	352 	358
f 357 	358 	352
f 361 	355 	360
f 358 	360 	355
f 362 	247 	355
f 361 	362 	355
f 247 	234 	355
f 363 	247 	362
# 140 faces

g group_0_8273816

usemtl color_8273816
s 0

f 56 	5 	6
f 48 	286 	39
f 48 	39 	42
f 43 	46 	42
f 6 	46 	43
f 5 	45 	6
f 46 	6 	45
f 47 	42 	46
f 48 	42 	47
f 39 	56 	42
f 56 	39 	116
f 116 	153 	56
f 153 	71 	56
f 71 	105 	56
f 56 	47 	46
f 56 	46 	45
f 56 	45 	5
f 105 	107 	56
f 149 	56 	107
f 284 	56 	149
f 284 	286 	56
f 286 	48 	56
f 48 	47 	56
f 56 	6 	43
f 56 	43 	42
f 149 	71 	153
f 116 	286 	153
f 39 	286 	116
f 284 	153 	286
f 149 	153 	284
f 105 	71 	149
f 105 	149 	107
# 32 faces

g group_0_15277357

usemtl color_15277357
s 0

f 7 	9 	203
f 7 	204 	17
f 23 	203 	22
f 9 	22 	203
f 24 	25 	320
f 3 	4 	14
f 3 	14 	27
f 28 	29 	30
f 10 	32 	19
f 31 	32 	10
f 32 	33 	19
f 26 	19 	33
f 35 	36 	37
f 35 	37 	38
f 34 	17 	15
f 34 	15 	44
f 10 	61 	31
f 243 	242 	58
f 66 	31 	61
f 90 	83 	86
f 81 	86 	83
f 30 	297 	170
f 88 	170 	297
f 22 	95 	96
f 22 	96 	23
f 44 	98 	34
f 95 	103 	96
f 9 	338 	22
f 304 	287 	104
f 300 	75 	104
f 76 	75 	300
f 332 	280 	25
f 22 	341 	95
f 92 	304 	104
f 38 	211 	35
f 81 	80 	86
f 90 	119 	83
f 98 	44 	15
f 98 	15 	129
f 103 	132 	96
f 23 	96 	132
f 26 	136 	19
f 137 	138 	103
f 328 	195 	198
f 4 	235 	236
f 4 	236 	14
f 3 	235 	4
f 27 	14 	236
f 198 	329 	328
f 36 	274 	273
f 36 	273 	37
f 35 	274 	36
f 30 	283 	282
f 211 	38 	273
f 37 	273 	38
f 319 	25 	280
f 319 	280 	279
f 169 	183 	175
f 169 	172 	183
f 193 	194 	188
f 187 	188 	194
f 195 	196 	197
f 195 	197 	198
f 199 	201 	185
f 192 	185 	201
f 102 	11 	302
f 326 	302 	11
f 186 	218 	182
f 7 	203 	204
f 329 	197 	196
f 202 	102 	302
f 204 	206 	129
f 204 	129 	15
f 15 	17 	204
f 57 	242 	180
f 203 	23 	132
f 203 	132 	208
f 198 	197 	329
f 208 	206 	203
f 204 	203 	206
f 182 	139 	98
f 206 	180 	98
f 129 	206 	98
f 211 	212 	35
f 132 	103 	208
f 138 	180 	103
f 332 	25 	24
f 211 	215 	212
f 214 	215 	211
f 215 	216 	212
f 213 	212 	216
f 28 	281 	335
f 220 	187 	216
f 219 	220 	216
f 213 	216 	187
f 194 	213 	187
f 335 	29 	28
f 175 	229 	169
f 182 	218 	139
f 222 	186 	242
f 182 	242 	186
f 224 	225 	226
f 224 	226 	227
f 229 	230 	231
f 229 	231 	232
f 201 	173 	246
f 210 	21 	173
f 192 	305 	185
f 232 	169 	229
f 239 	240 	235
f 238 	239 	235
f 236 	235 	240
f 237 	236 	240
f 58 	242 	57
f 172 	239 	238
f 172 	238 	183
f 245 	3 	244
f 27 	244 	3
f 245 	235 	3
f 27 	236 	244
f 185 	21 	199
f 244 	230 	245
f 229 	245 	230
f 29 	334 	210
f 229 	238 	245
f 235 	245 	238
f 192 	246 	88
f 236 	237 	244
f 230 	244 	237
f 254 	255 	256
f 254 	256 	257
f 231 	240 	239
f 231 	239 	232
f 21 	170 	88
f 246 	21 	88
f 260 	261 	262
f 260 	262 	263
f 243 	302 	242
f 182 	180 	242
f 229 	175 	183
f 229 	183 	238
f 210 	199 	21
f 246 	192 	201
f 269 	224 	227
f 269 	227 	271
f 246 	173 	21
f 269 	273 	274
f 269 	274 	275
f 225 	224 	275
f 269 	275 	224
f 271 	227 	277
f 226 	277 	227
f 199 	210 	334
f 281 	282 	283
f 188 	226 	225
f 275 	193 	225
f 188 	225 	193
f 291 	277 	226
f 220 	188 	187
f 212 	274 	35
f 213 	275 	274
f 213 	274 	212
f 269 	214 	273
f 211 	273 	214
f 215 	271 	277
f 215 	277 	216
f 136 	248 	247
f 194 	193 	275
f 194 	275 	213
f 251 	250 	32
f 33 	32 	250
f 33 	250 	259
f 291 	219 	277
f 216 	277 	219
f 136 	266 	248
f 237 	240 	231
f 237 	231 	230
f 311 	314 	232
f 214 	215 	199
f 172 	288 	239
f 287 	239 	288
f 215 	214 	271
f 269 	271 	214
f 288 	172 	289
f 172 	169 	289
f 185 	170 	21
f 232 	239 	290
f 287 	290 	239
f 232 	290 	311
f 88 	305 	192
f 341 	22 	338
f 30 	170 	283
f 226 	292 	291
f 188 	292 	226
f 9 	7 	338
f 188 	220 	292
f 293 	292 	220
f 170 	295 	283
f 219 	291 	296
f 8 	302 	243
f 297 	315 	88
f 299 	300 	288
f 299 	288 	289
f 304 	306 	290
f 304 	290 	287
f 139 	302 	98
f 307 	308 	292
f 307 	292 	293
f 103 	327 	137
f 309 	310 	296
f 309 	296 	291
f 214 	295 	315
f 283 	295 	214
f 295 	305 	315
f 311 	312 	313
f 311 	313 	314
f 30 	29 	297
f 169 	232 	314
f 208 	103 	180
f 206 	208 	180
f 316 	215 	315
f 315 	215 	214
f 10 	253 	61
f 177 	61 	253
f 314 	313 	289
f 314 	289 	169
f 260 	263 	83
f 81 	83 	263
f 311 	290 	312
f 254 	257 	92
f 76 	92 	257
f 75 	256 	104
f 255 	104 	256
f 76 	299 	313
f 312 	92 	313
f 306 	92 	312
f 76 	313 	92
f 242 	302 	317
f 222 	242 	317
f 139 	218 	302
f 210 	173 	29
f 297 	29 	173
f 75 	76 	256
f 257 	256 	76
f 289 	313 	299
f 317 	302 	218
f 182 	98 	180
f 255 	254 	104
f 92 	104 	254
f 80 	262 	119
f 261 	119 	262
f 306 	312 	290
f 80 	81 	262
f 263 	262 	81
f 261 	260 	119
f 83 	119 	260
f 287 	288 	104
f 300 	104 	288
f 343 	19 	136
f 76 	300 	299
f 319 	320 	25
f 28 	30 	322
f 321 	322 	30
f 92 	306 	304
f 324 	325 	326
f 324 	326 	327
f 80 	119 	308
f 309 	291 	119
f 292 	119 	291
f 308 	119 	292
f 328 	329 	330
f 328 	330 	331
f 315 	201 	316
f 201 	199 	316
f 195 	328 	331
f 86 	80 	308
f 86 	308 	307
f 279 	280 	333
f 332 	333 	280
f 329 	196 	330
f 281 	283 	335
f 334 	335 	283
f 119 	90 	309
f 310 	309 	90
f 196 	195 	330
f 331 	330 	195
f 24 	279 	333
f 220 	219 	296
f 220 	296 	293
f 332 	24 	333
f 34 	98 	325
f 326 	325 	98
f 327 	103 	324
f 95 	324 	103
f 307 	293 	86
f 293 	296 	86
f 90 	86 	296
f 90 	296 	310
f 29 	335 	334
f 338 	339 	340
f 338 	340 	341
f 283 	214 	334
f 7 	17 	339
f 340 	339 	17
f 316 	199 	215
f 334 	214 	199
f 7 	339 	338
f 325 	324 	341
f 325 	341 	340
f 325 	340 	34
f 295 	170 	185
f 17 	34 	340
f 295 	185 	305
f 95 	341 	324
f 19 	343 	10
f 282 	321 	30
f 320 	279 	24
f 279 	320 	319
f 281 	28 	322
f 136 	344 	343
f 342 	343 	344
f 321 	282 	322
f 281 	322 	282
f 305 	88 	315
f 2 	1 	327
f 8 	202 	302
f 326 	98 	302
f 327 	11 	2
f 327 	326 	11
f 1 	137 	327
f 136 	247 	344
f 363 	344 	247
f 253 	10 	343
f 253 	343 	177
f 343 	356 	177
f 342 	356 	343
f 178 	177 	356
# 337 faces

g group_0_16768282

usemtl color_16768282
s 0

f 18 	16 	221
f 218 	186 	167
f 16 	133 	167
f 222 	167 	186
f 167 	221 	16
f 167 	222 	221
f 66 	223 	31
f 259 	258 	33
f 136 	267 	266
f 278 	276 	26
f 136 	26 	276
f 136 	276 	267
f 278 	26 	258
f 33 	258 	26
f 32 	252 	251
f 32 	31 	285
f 32 	285 	252
f 223 	285 	31
f 167 	217 	218
f 167 	133 	157
f 167 	157 	217
f 221 	222 	318
f 317 	318 	222
f 157 	18 	217
f 318 	217 	18
f 318 	18 	221
f 217 	318 	218
f 317 	218 	318
f 359 	358 	357
f 359 	357 	342
f 356 	342 	357
f 342 	344 	361
f 342 	361 	360
f 342 	360 	359
f 361 	344 	362
f 360 	358 	359
f 344 	363 	362
# 37 faces

 #end of obj_0

